%YAML 1.1
%TAG !u! tag:unity3d.com,2011:
--- !u!21 &2100000
Material:
  serializedVersion: 6
  m_ObjectHideFlags: 0
  m_PrefabParentObject: {fileID: 0}
  m_PrefabInternal: {fileID: 0}
  m_Name: sfx_mat_tex_sheet_0_2_v00
  m_Shader: {fileID: 4800000, guid: fd98c2510af582d49ba5c61308ac0bd4, type: 3}
  m_ShaderKeywords: VERTEX_PACKED_OFF _ALPHABLEND_ON
  m_LightmapFlags: 4
  m_EnableInstancingVariants: 0
  m_DoubleSidedGI: 0
  m_CustomRenderQueue: 3000
  stringTagMap: {}
  disabledShaderPasses: []
  m_SavedProperties:
    serializedVersion: 3
    m_TexEnvs:
    - _AlphaTex:
        m_Texture: {fileID: 0}
        m_Scale: {x: 1, y: 1}
        m_Offset: {x: 0, y: 0}
    - _DetailTex:
        m_Texture: {fileID: 0}
        m_Scale: {x: 1, y: 1}
        m_Offset: {x: 0, y: 0}
    - _DissMask:
        m_Texture: {fileID: 0}
        m_Scale: {x: 1, y: 1}
        m_Offset: {x: 0, y: 0}
    - _DissolveMap:
        m_Texture: {fileID: 0}
        m_Scale: {x: 1, y: 1}
        m_Offset: {x: 0, y: 0}
    - _DistortTex:
        m_Texture: {fileID: 0}
        m_Scale: {x: 1, y: 1}
        m_Offset: {x: 0, y: 0}
    - _MainTex:
        m_Texture: {fileID: 2800000, guid: 62d7d8e562ba50940baaf0fb9a875bc6, type: 3}
        m_Scale: {x: 1, y: 1}
        m_Offset: {x: 0, y: 0}
    - _MaskTex:
        m_Texture: {fileID: 0}
        m_Scale: {x: 1, y: 1}
        m_Offset: {x: 0, y: 0}
    m_Floats:
    - _AlphaPower: 4
    - _CullMode: 0
    - _Cutoff: 0
    - _DissolveColorFactor: 0.7
    - _DissolveEdgeFactor: 0.8
    - _DissolveThreshold: 0
    - _DstBlend: 10
    - _ForceX: 0.1
    - _ForceY: 0.1
    - _HeatTime: 0
    - _InvFade: 1
    - _IsTwoSided: 1
    - _IsVertical: 0
    - _MMultiplier: 1
    - _MainSpeedU: 0
    - _MainSpeedV: 0
    - _MaskSpeedU: 0
    - _MaskSpeedV: 0
    - _Mode: 2
    - _N_BY_KD: 0.01
    - _N_BY_QD: 3
    - _N_mask: 0.3
    - _RimFalloff: 0
    - _RimPower: 0
    - _RotationSpeed: 0
    - _Scroll2X: 1
    - _Scroll2Y: 0
    - _ScrollX: 1
    - _ScrollY: 0
    - _SineAmplX: 0.5
    - _SineAmplX2: 0.5
    - _SineAmplY: 0.5
    - _SineAmplY2: 0.5
    - _SineFreqX: 10
    - _SineFreqX2: 10
    - _SineFreqY: 10
    - _SineFreqY2: 10
    - _SrcBlend: 5
    - _UVAngle: 0
    - _ZMove: 0
    - _ZWrite: 0
    - offsetAdd: -10
    - offsetMul: 20
    - scaleAdd: -10
    - scaleMul: 20
    m_Colors:
    - _C_BYcolor: {r: 1, g: 0, b: 0, a: 1}
    - _Color: {r: 1, g: 1, b: 1, a: 1}
    - _DissolveColor: {r: 0, g: 0, b: 0, a: 0}
    - _DissolveEdgeColor: {r: 1, g: 1, b: 1, a: 1}
    - _RimColor: {r: 1, g: 1, b: 1, a: 1}
    - _TintColor: {r: 1, g: 1, b: 1, a: 1}
