%YAML 1.1
%TAG !u! tag:unity3d.com,2011:
--- !u!74 &7400000
AnimationClip:
  m_ObjectHideFlags: 0
  m_PrefabParentObject: {fileID: 0}
  m_PrefabInternal: {fileID: 0}
  m_Name: ani_sfx_hit_511
  serializedVersion: 6
  m_Legacy: 0
  m_Compressed: 0
  m_UseHighQualityCurve: 1
  m_RotationCurves: []
  m_CompressedRotationCurves: []
  m_EulerCurves: []
  m_PositionCurves: []
  m_ScaleCurves:
  - curve:
      serializedVersion: 2
      m_Curve:
      - serializedVersion: 2
        time: 0.5
        value: {x: 0.6415315, y: 0.6415312, z: 1.1531657}
        inSlope: {x: 0, y: 0, z: 0}
        outSlope: {x: 0, y: 0, z: 0}
        tangentMode: 0
      m_PreInfinity: 2
      m_PostInfinity: 2
      m_RotationOrder: 4
    path: F_cone_02
  - curve:
      serializedVersion: 2
      m_Curve:
      - serializedVersion: 2
        time: 0.8
        value: {x: 5.500133, y: 4.0253763, z: 2.6652665}
        inSlope: {x: 0, y: 0, z: 0}
        outSlope: {x: 0, y: 0, z: 0}
        tangentMode: 0
      m_PreInfinity: 2
      m_PostInfinity: 2
      m_RotationOrder: 4
    path: F_plan_A_01
  m_FloatCurves:
  - curve:
      serializedVersion: 2
      m_Curve:
      - serializedVersion: 2
        time: 0
        value: 2
        inSlope: 0
        outSlope: 0
        tangentMode: 69
      - serializedVersion: 2
        time: 6
        value: 2
        inSlope: -0
        outSlope: 0
        tangentMode: 69
      m_PreInfinity: 2
      m_PostInfinity: 2
      m_RotationOrder: 4
    attribute: mainTiling.x
    path: F_cone_02
    classID: 114
    script: {fileID: 11500000, guid: b21f803dea437d4428e4209098432094, type: 3}
  - curve:
      serializedVersion: 2
      m_Curve:
      - serializedVersion: 2
        time: 0
        value: 1
        inSlope: 0
        outSlope: 0
        tangentMode: 69
      - serializedVersion: 2
        time: 6
        value: 1
        inSlope: -0
        outSlope: 0
        tangentMode: 69
      m_PreInfinity: 2
      m_PostInfinity: 2
      m_RotationOrder: 4
    attribute: mainTiling.y
    path: F_cone_02
    classID: 114
    script: {fileID: 11500000, guid: b21f803dea437d4428e4209098432094, type: 3}
  - curve:
      serializedVersion: 2
      m_Curve:
      - serializedVersion: 2
        time: 0
        value: 0.21
        inSlope: 0
        outSlope: -0.035
        tangentMode: 69
      - serializedVersion: 2
        time: 6
        value: 0
        inSlope: -0.035
        outSlope: 0
        tangentMode: 69
      m_PreInfinity: 2
      m_PostInfinity: 2
      m_RotationOrder: 4
    attribute: mainOffset.x
    path: F_cone_02
    classID: 114
    script: {fileID: 11500000, guid: b21f803dea437d4428e4209098432094, type: 3}
  - curve:
      serializedVersion: 2
      m_Curve:
      - serializedVersion: 2
        time: 0
        value: 0
        inSlope: -4.838917
        outSlope: -1.6666666
        tangentMode: 69
      - serializedVersion: 2
        time: 6
        value: -10
        inSlope: -1.6666666
        outSlope: 1.2145748
        tangentMode: 69
      m_PreInfinity: 2
      m_PostInfinity: 2
      m_RotationOrder: 4
    attribute: mainOffset.y
    path: F_cone_02
    classID: 114
    script: {fileID: 11500000, guid: b21f803dea437d4428e4209098432094, type: 3}
  - curve:
      serializedVersion: 2
      m_Curve:
      - serializedVersion: 2
        time: 6
        value: 1
        inSlope: 0
        outSlope: 0
        tangentMode: 69
      m_PreInfinity: 2
      m_PostInfinity: 2
      m_RotationOrder: 4
    attribute: tintColor.r
    path: F_cone_02
    classID: 114
    script: {fileID: 11500000, guid: b21f803dea437d4428e4209098432094, type: 3}
  - curve:
      serializedVersion: 2
      m_Curve:
      - serializedVersion: 2
        time: 6
        value: 0.14482754
        inSlope: 0
        outSlope: 0
        tangentMode: 69
      m_PreInfinity: 2
      m_PostInfinity: 2
      m_RotationOrder: 4
    attribute: tintColor.g
    path: F_cone_02
    classID: 114
    script: {fileID: 11500000, guid: b21f803dea437d4428e4209098432094, type: 3}
  - curve:
      serializedVersion: 2
      m_Curve:
      - serializedVersion: 2
        time: 6
        value: 0
        inSlope: 0
        outSlope: 0
        tangentMode: 69
      m_PreInfinity: 2
      m_PostInfinity: 2
      m_RotationOrder: 4
    attribute: tintColor.b
    path: F_cone_02
    classID: 114
    script: {fileID: 11500000, guid: b21f803dea437d4428e4209098432094, type: 3}
  - curve:
      serializedVersion: 2
      m_Curve:
      - serializedVersion: 2
        time: 6
        value: 1
        inSlope: -0
        outSlope: -0
        tangentMode: 69
      m_PreInfinity: 2
      m_PostInfinity: 2
      m_RotationOrder: 4
    attribute: tintColor.a
    path: F_cone_02
    classID: 114
    script: {fileID: 11500000, guid: b21f803dea437d4428e4209098432094, type: 3}
  - curve:
      serializedVersion: 2
      m_Curve:
      - serializedVersion: 2
        time: 0
        value: 1
        inSlope: 0
        outSlope: 0
        tangentMode: 69
      - serializedVersion: 2
        time: 6
        value: 1
        inSlope: -0
        outSlope: 0
        tangentMode: 69
      m_PreInfinity: 2
      m_PostInfinity: 2
      m_RotationOrder: 4
    attribute: mainTiling.x
    path: M_plan_205_GU
    classID: 114
    script: {fileID: 11500000, guid: b21f803dea437d4428e4209098432094, type: 3}
  - curve:
      serializedVersion: 2
      m_Curve:
      - serializedVersion: 2
        time: 0
        value: 1
        inSlope: 0
        outSlope: 0
        tangentMode: 69
      - serializedVersion: 2
        time: 6
        value: 1
        inSlope: -0
        outSlope: 0
        tangentMode: 69
      m_PreInfinity: 2
      m_PostInfinity: 2
      m_RotationOrder: 4
    attribute: mainTiling.y
    path: M_plan_205_GU
    classID: 114
    script: {fileID: 11500000, guid: b21f803dea437d4428e4209098432094, type: 3}
  - curve:
      serializedVersion: 2
      m_Curve:
      - serializedVersion: 2
        time: 0
        value: 0
        inSlope: 0
        outSlope: 0
        tangentMode: 69
      - serializedVersion: 2
        time: 6
        value: 0
        inSlope: -0
        outSlope: 0
        tangentMode: 69
      m_PreInfinity: 2
      m_PostInfinity: 2
      m_RotationOrder: 4
    attribute: mainOffset.x
    path: M_plan_205_GU
    classID: 114
    script: {fileID: 11500000, guid: b21f803dea437d4428e4209098432094, type: 3}
  - curve:
      serializedVersion: 2
      m_Curve:
      - serializedVersion: 2
        time: 0
        value: 0
        inSlope: -1.7625694
        outSlope: -1.6666666
        tangentMode: 69
      - serializedVersion: 2
        time: 6
        value: -10
        inSlope: -1.6666666
        outSlope: 1.3236891
        tangentMode: 69
      m_PreInfinity: 2
      m_PostInfinity: 2
      m_RotationOrder: 4
    attribute: mainOffset.y
    path: M_plan_205_GU
    classID: 114
    script: {fileID: 11500000, guid: b21f803dea437d4428e4209098432094, type: 3}
  - curve:
      serializedVersion: 2
      m_Curve:
      - serializedVersion: 2
        time: 0
        value: 1
        inSlope: 0
        outSlope: 0
        tangentMode: 69
      - serializedVersion: 2
        time: 6
        value: 1
        inSlope: -0
        outSlope: -0
        tangentMode: 69
      m_PreInfinity: 2
      m_PostInfinity: 2
      m_RotationOrder: 4
    attribute: tintColor.a
    path: M_plan_205_GU
    classID: 114
    script: {fileID: 11500000, guid: b21f803dea437d4428e4209098432094, type: 3}
  - curve:
      serializedVersion: 2
      m_Curve:
      - serializedVersion: 2
        time: 0
        value: 1
        inSlope: 0
        outSlope: 0
        tangentMode: 69
      - serializedVersion: 2
        time: 6
        value: 1
        inSlope: -0
        outSlope: 0
        tangentMode: 69
      m_PreInfinity: 2
      m_PostInfinity: 2
      m_RotationOrder: 4
    attribute: material._MainTex_ST.x
    path: F_plan_A_01
    classID: 23
    script: {fileID: 0}
  - curve:
      serializedVersion: 2
      m_Curve:
      - serializedVersion: 2
        time: 0
        value: 1
        inSlope: 0
        outSlope: 0
        tangentMode: 69
      - serializedVersion: 2
        time: 6
        value: 1
        inSlope: -0
        outSlope: 0
        tangentMode: 69
      m_PreInfinity: 2
      m_PostInfinity: 2
      m_RotationOrder: 4
    attribute: material._MainTex_ST.y
    path: F_plan_A_01
    classID: 23
    script: {fileID: 0}
  - curve:
      serializedVersion: 2
      m_Curve:
      - serializedVersion: 2
        time: 0
        value: 0
        inSlope: 0
        outSlope: 0
        tangentMode: 69
      - serializedVersion: 2
        time: 6
        value: 0
        inSlope: -0
        outSlope: 0
        tangentMode: 69
      m_PreInfinity: 2
      m_PostInfinity: 2
      m_RotationOrder: 4
    attribute: material._MainTex_ST.z
    path: F_plan_A_01
    classID: 23
    script: {fileID: 0}
  - curve:
      serializedVersion: 2
      m_Curve:
      - serializedVersion: 2
        time: 0
        value: -8.39
        inSlope: 0
        outSlope: -1.2683333
        tangentMode: 69
      - serializedVersion: 2
        time: 6
        value: -16
        inSlope: -1.2683333
        outSlope: 0.91686743
        tangentMode: 69
      m_PreInfinity: 2
      m_PostInfinity: 2
      m_RotationOrder: 4
    attribute: material._MainTex_ST.w
    path: F_plan_A_01
    classID: 23
    script: {fileID: 0}
  - curve:
      serializedVersion: 2
      m_Curve:
      - serializedVersion: 2
        time: 0
        value: 1
        inSlope: 0
        outSlope: 0
        tangentMode: 69
      m_PreInfinity: 2
      m_PostInfinity: 2
      m_RotationOrder: 4
    attribute: tintColor.r
    path: M_plan_205_GU
    classID: 114
    script: {fileID: 11500000, guid: b21f803dea437d4428e4209098432094, type: 3}
  - curve:
      serializedVersion: 2
      m_Curve:
      - serializedVersion: 2
        time: 0
        value: 1
        inSlope: 0
        outSlope: 0
        tangentMode: 69
      m_PreInfinity: 2
      m_PostInfinity: 2
      m_RotationOrder: 4
    attribute: tintColor.g
    path: M_plan_205_GU
    classID: 114
    script: {fileID: 11500000, guid: b21f803dea437d4428e4209098432094, type: 3}
  - curve:
      serializedVersion: 2
      m_Curve:
      - serializedVersion: 2
        time: 0
        value: 1
        inSlope: 0
        outSlope: 0
        tangentMode: 69
      m_PreInfinity: 2
      m_PostInfinity: 2
      m_RotationOrder: 4
    attribute: tintColor.b
    path: M_plan_205_GU
    classID: 114
    script: {fileID: 11500000, guid: b21f803dea437d4428e4209098432094, type: 3}
  - curve:
      serializedVersion: 2
      m_Curve:
      - serializedVersion: 2
        time: 0
        value: 1
        inSlope: Infinity
        outSlope: 0
        tangentMode: 69
      - serializedVersion: 2
        time: 0.1
        value: 1
        inSlope: -0
        outSlope: Infinity
        tangentMode: 69
      m_PreInfinity: 2
      m_PostInfinity: 2
      m_RotationOrder: 4
    attribute: m_IsActive
    path: F_cone_02
    classID: 1
    script: {fileID: 0}
  m_PPtrCurves: []
  m_SampleRate: 30
  m_WrapMode: 0
  m_Bounds:
    m_Center: {x: 0, y: 0, z: 0}
    m_Extent: {x: 0, y: 0, z: 0}
  m_ClipBindingConstant:
    genericBindings:
    - serializedVersion: 2
      path: 3740312669
      attribute: 2549907364
      script: {fileID: 11500000, guid: b21f803dea437d4428e4209098432094, type: 3}
      typeID: 114
      customType: 0
      isPPtrCurve: 0
    - serializedVersion: 2
      path: 3740312669
      attribute: 3774566194
      script: {fileID: 11500000, guid: b21f803dea437d4428e4209098432094, type: 3}
      typeID: 114
      customType: 0
      isPPtrCurve: 0
    - serializedVersion: 2
      path: 966293904
      attribute: 3774566194
      script: {fileID: 11500000, guid: b21f803dea437d4428e4209098432094, type: 3}
      typeID: 114
      customType: 0
      isPPtrCurve: 0
    - serializedVersion: 2
      path: 86956249
      attribute: 914802057
      script: {fileID: 0}
      typeID: 23
      customType: 22
      isPPtrCurve: 0
    - serializedVersion: 2
      path: 3740312669
      attribute: 2086281974
      script: {fileID: 0}
      typeID: 1
      customType: 0
      isPPtrCurve: 0
    - serializedVersion: 2
      path: 3740312669
      attribute: 3
      script: {fileID: 0}
      typeID: 4
      customType: 0
      isPPtrCurve: 0
    - serializedVersion: 2
      path: 86956249
      attribute: 3
      script: {fileID: 0}
      typeID: 4
      customType: 0
      isPPtrCurve: 0
    - serializedVersion: 2
      path: 3740312669
      attribute: 47125597
      script: {fileID: 11500000, guid: b21f803dea437d4428e4209098432094, type: 3}
      typeID: 114
      customType: 0
      isPPtrCurve: 0
    - serializedVersion: 2
      path: 3740312669
      attribute: 1976050891
      script: {fileID: 11500000, guid: b21f803dea437d4428e4209098432094, type: 3}
      typeID: 114
      customType: 0
      isPPtrCurve: 0
    - serializedVersion: 2
      path: 3740312669
      attribute: 3851055115
      script: {fileID: 11500000, guid: b21f803dea437d4428e4209098432094, type: 3}
      typeID: 114
      customType: 0
      isPPtrCurve: 0
    - serializedVersion: 2
      path: 3740312669
      attribute: 2287441120
      script: {fileID: 11500000, guid: b21f803dea437d4428e4209098432094, type: 3}
      typeID: 114
      customType: 0
      isPPtrCurve: 0
    - serializedVersion: 2
      path: 3740312669
      attribute: 4164771951
      script: {fileID: 11500000, guid: b21f803dea437d4428e4209098432094, type: 3}
      typeID: 114
      customType: 0
      isPPtrCurve: 0
    - serializedVersion: 2
      path: 3740312669
      attribute: 1630810581
      script: {fileID: 11500000, guid: b21f803dea437d4428e4209098432094, type: 3}
      typeID: 114
      customType: 0
      isPPtrCurve: 0
    - serializedVersion: 2
      path: 966293904
      attribute: 47125597
      script: {fileID: 11500000, guid: b21f803dea437d4428e4209098432094, type: 3}
      typeID: 114
      customType: 0
      isPPtrCurve: 0
    - serializedVersion: 2
      path: 966293904
      attribute: 1976050891
      script: {fileID: 11500000, guid: b21f803dea437d4428e4209098432094, type: 3}
      typeID: 114
      customType: 0
      isPPtrCurve: 0
    - serializedVersion: 2
      path: 966293904
      attribute: 2549907364
      script: {fileID: 11500000, guid: b21f803dea437d4428e4209098432094, type: 3}
      typeID: 114
      customType: 0
      isPPtrCurve: 0
    - serializedVersion: 2
      path: 966293904
      attribute: 1630810581
      script: {fileID: 11500000, guid: b21f803dea437d4428e4209098432094, type: 3}
      typeID: 114
      customType: 0
      isPPtrCurve: 0
    - serializedVersion: 2
      path: 86956249
      attribute: 109495689
      script: {fileID: 0}
      typeID: 23
      customType: 22
      isPPtrCurve: 0
    - serializedVersion: 2
      path: 86956249
      attribute: 377931145
      script: {fileID: 0}
      typeID: 23
      customType: 22
      isPPtrCurve: 0
    - serializedVersion: 2
      path: 86956249
      attribute: 646366601
      script: {fileID: 0}
      typeID: 23
      customType: 22
      isPPtrCurve: 0
    - serializedVersion: 2
      path: 966293904
      attribute: 3851055115
      script: {fileID: 11500000, guid: b21f803dea437d4428e4209098432094, type: 3}
      typeID: 114
      customType: 0
      isPPtrCurve: 0
    - serializedVersion: 2
      path: 966293904
      attribute: 2287441120
      script: {fileID: 11500000, guid: b21f803dea437d4428e4209098432094, type: 3}
      typeID: 114
      customType: 0
      isPPtrCurve: 0
    - serializedVersion: 2
      path: 966293904
      attribute: 4164771951
      script: {fileID: 11500000, guid: b21f803dea437d4428e4209098432094, type: 3}
      typeID: 114
      customType: 0
      isPPtrCurve: 0
    pptrCurveMapping: []
  m_AnimationClipSettings:
    serializedVersion: 2
    m_AdditiveReferencePoseClip: {fileID: 0}
    m_AdditiveReferencePoseTime: 0
    m_StartTime: 0
    m_StopTime: 6
    m_OrientationOffsetY: 0
    m_Level: 0
    m_CycleOffset: 0
    m_HasAdditiveReferencePose: 0
    m_LoopTime: 1
    m_LoopBlend: 0
    m_LoopBlendOrientation: 0
    m_LoopBlendPositionY: 0
    m_LoopBlendPositionXZ: 0
    m_KeepOriginalOrientation: 0
    m_KeepOriginalPositionY: 1
    m_KeepOriginalPositionXZ: 0
    m_HeightFromFeet: 0
    m_Mirror: 0
  m_EditorCurves:
  - curve:
      serializedVersion: 2
      m_Curve:
      - serializedVersion: 2
        time: 0.5
        value: 0.6415315
        inSlope: 0
        outSlope: 0
        tangentMode: 69
      m_PreInfinity: 2
      m_PostInfinity: 2
      m_RotationOrder: 4
    attribute: m_LocalScale.x
    path: F_cone_02
    classID: 4
    script: {fileID: 0}
  - curve:
      serializedVersion: 2
      m_Curve:
      - serializedVersion: 2
        time: 0.5
        value: 0.6415312
        inSlope: 0
        outSlope: 0
        tangentMode: 69
      m_PreInfinity: 2
      m_PostInfinity: 2
      m_RotationOrder: 4
    attribute: m_LocalScale.y
    path: F_cone_02
    classID: 4
    script: {fileID: 0}
  - curve:
      serializedVersion: 2
      m_Curve:
      - serializedVersion: 2
        time: 0.5
        value: 1.1531657
        inSlope: 0
        outSlope: 0
        tangentMode: 69
      m_PreInfinity: 2
      m_PostInfinity: 2
      m_RotationOrder: 4
    attribute: m_LocalScale.z
    path: F_cone_02
    classID: 4
    script: {fileID: 0}
  - curve:
      serializedVersion: 2
      m_Curve:
      - serializedVersion: 2
        time: 0
        value: 2
        inSlope: 0
        outSlope: 0
        tangentMode: 69
      - serializedVersion: 2
        time: 6
        value: 2
        inSlope: -0
        outSlope: 0
        tangentMode: 69
      m_PreInfinity: 2
      m_PostInfinity: 2
      m_RotationOrder: 4
    attribute: mainTiling.x
    path: F_cone_02
    classID: 114
    script: {fileID: 11500000, guid: b21f803dea437d4428e4209098432094, type: 3}
  - curve:
      serializedVersion: 2
      m_Curve:
      - serializedVersion: 2
        time: 0
        value: 1
        inSlope: 0
        outSlope: 0
        tangentMode: 69
      - serializedVersion: 2
        time: 6
        value: 1
        inSlope: -0
        outSlope: 0
        tangentMode: 69
      m_PreInfinity: 2
      m_PostInfinity: 2
      m_RotationOrder: 4
    attribute: mainTiling.y
    path: F_cone_02
    classID: 114
    script: {fileID: 11500000, guid: b21f803dea437d4428e4209098432094, type: 3}
  - curve:
      serializedVersion: 2
      m_Curve:
      - serializedVersion: 2
        time: 0
        value: 0.21
        inSlope: 0
        outSlope: -0.035
        tangentMode: 69
      - serializedVersion: 2
        time: 6
        value: 0
        inSlope: -0.035
        outSlope: 0
        tangentMode: 69
      m_PreInfinity: 2
      m_PostInfinity: 2
      m_RotationOrder: 4
    attribute: mainOffset.x
    path: F_cone_02
    classID: 114
    script: {fileID: 11500000, guid: b21f803dea437d4428e4209098432094, type: 3}
  - curve:
      serializedVersion: 2
      m_Curve:
      - serializedVersion: 2
        time: 0
        value: 0
        inSlope: -4.838917
        outSlope: -1.6666666
        tangentMode: 69
      - serializedVersion: 2
        time: 6
        value: -10
        inSlope: -1.6666666
        outSlope: 1.2145748
        tangentMode: 69
      m_PreInfinity: 2
      m_PostInfinity: 2
      m_RotationOrder: 4
    attribute: mainOffset.y
    path: F_cone_02
    classID: 114
    script: {fileID: 11500000, guid: b21f803dea437d4428e4209098432094, type: 3}
  - curve:
      serializedVersion: 2
      m_Curve:
      - serializedVersion: 2
        time: 6
        value: 1
        inSlope: 0
        outSlope: 0
        tangentMode: 69
      m_PreInfinity: 2
      m_PostInfinity: 2
      m_RotationOrder: 4
    attribute: tintColor.r
    path: F_cone_02
    classID: 114
    script: {fileID: 11500000, guid: b21f803dea437d4428e4209098432094, type: 3}
  - curve:
      serializedVersion: 2
      m_Curve:
      - serializedVersion: 2
        time: 6
        value: 0.14482754
        inSlope: 0
        outSlope: 0
        tangentMode: 69
      m_PreInfinity: 2
      m_PostInfinity: 2
      m_RotationOrder: 4
    attribute: tintColor.g
    path: F_cone_02
    classID: 114
    script: {fileID: 11500000, guid: b21f803dea437d4428e4209098432094, type: 3}
  - curve:
      serializedVersion: 2
      m_Curve:
      - serializedVersion: 2
        time: 6
        value: 0
        inSlope: 0
        outSlope: 0
        tangentMode: 69
      m_PreInfinity: 2
      m_PostInfinity: 2
      m_RotationOrder: 4
    attribute: tintColor.b
    path: F_cone_02
    classID: 114
    script: {fileID: 11500000, guid: b21f803dea437d4428e4209098432094, type: 3}
  - curve:
      serializedVersion: 2
      m_Curve:
      - serializedVersion: 2
        time: 6
        value: 1
        inSlope: -0
        outSlope: -0
        tangentMode: 69
      m_PreInfinity: 2
      m_PostInfinity: 2
      m_RotationOrder: 4
    attribute: tintColor.a
    path: F_cone_02
    classID: 114
    script: {fileID: 11500000, guid: b21f803dea437d4428e4209098432094, type: 3}
  - curve:
      serializedVersion: 2
      m_Curve:
      - serializedVersion: 2
        time: 0
        value: 1
        inSlope: 0
        outSlope: 0
        tangentMode: 69
      - serializedVersion: 2
        time: 6
        value: 1
        inSlope: -0
        outSlope: 0
        tangentMode: 69
      m_PreInfinity: 2
      m_PostInfinity: 2
      m_RotationOrder: 4
    attribute: mainTiling.x
    path: M_plan_205_GU
    classID: 114
    script: {fileID: 11500000, guid: b21f803dea437d4428e4209098432094, type: 3}
  - curve:
      serializedVersion: 2
      m_Curve:
      - serializedVersion: 2
        time: 0
        value: 1
        inSlope: 0
        outSlope: 0
        tangentMode: 69
      - serializedVersion: 2
        time: 6
        value: 1
        inSlope: -0
        outSlope: 0
        tangentMode: 69
      m_PreInfinity: 2
      m_PostInfinity: 2
      m_RotationOrder: 4
    attribute: mainTiling.y
    path: M_plan_205_GU
    classID: 114
    script: {fileID: 11500000, guid: b21f803dea437d4428e4209098432094, type: 3}
  - curve:
      serializedVersion: 2
      m_Curve:
      - serializedVersion: 2
        time: 0
        value: 0
        inSlope: 0
        outSlope: 0
        tangentMode: 69
      - serializedVersion: 2
        time: 6
        value: 0
        inSlope: -0
        outSlope: 0
        tangentMode: 69
      m_PreInfinity: 2
      m_PostInfinity: 2
      m_RotationOrder: 4
    attribute: mainOffset.x
    path: M_plan_205_GU
    classID: 114
    script: {fileID: 11500000, guid: b21f803dea437d4428e4209098432094, type: 3}
  - curve:
      serializedVersion: 2
      m_Curve:
      - serializedVersion: 2
        time: 0
        value: 0
        inSlope: -1.7625694
        outSlope: -1.6666666
        tangentMode: 69
      - serializedVersion: 2
        time: 6
        value: -10
        inSlope: -1.6666666
        outSlope: 1.3236891
        tangentMode: 69
      m_PreInfinity: 2
      m_PostInfinity: 2
      m_RotationOrder: 4
    attribute: mainOffset.y
    path: M_plan_205_GU
    classID: 114
    script: {fileID: 11500000, guid: b21f803dea437d4428e4209098432094, type: 3}
  - curve:
      serializedVersion: 2
      m_Curve:
      - serializedVersion: 2
        time: 0
        value: 1
        inSlope: 0
        outSlope: 0
        tangentMode: 69
      - serializedVersion: 2
        time: 6
        value: 1
        inSlope: -0
        outSlope: -0
        tangentMode: 69
      m_PreInfinity: 2
      m_PostInfinity: 2
      m_RotationOrder: 4
    attribute: tintColor.a
    path: M_plan_205_GU
    classID: 114
    script: {fileID: 11500000, guid: b21f803dea437d4428e4209098432094, type: 3}
  - curve:
      serializedVersion: 2
      m_Curve:
      - serializedVersion: 2
        time: 0.8
        value: 5.500133
        inSlope: 0
        outSlope: 0
        tangentMode: 69
      m_PreInfinity: 2
      m_PostInfinity: 2
      m_RotationOrder: 4
    attribute: m_LocalScale.x
    path: F_plan_A_01
    classID: 4
    script: {fileID: 0}
  - curve:
      serializedVersion: 2
      m_Curve:
      - serializedVersion: 2
        time: 0.8
        value: 4.0253763
        inSlope: 0
        outSlope: 0
        tangentMode: 69
      m_PreInfinity: 2
      m_PostInfinity: 2
      m_RotationOrder: 4
    attribute: m_LocalScale.y
    path: F_plan_A_01
    classID: 4
    script: {fileID: 0}
  - curve:
      serializedVersion: 2
      m_Curve:
      - serializedVersion: 2
        time: 0.8
        value: 2.6652665
        inSlope: 0
        outSlope: 0
        tangentMode: 69
      m_PreInfinity: 2
      m_PostInfinity: 2
      m_RotationOrder: 4
    attribute: m_LocalScale.z
    path: F_plan_A_01
    classID: 4
    script: {fileID: 0}
  - curve:
      serializedVersion: 2
      m_Curve:
      - serializedVersion: 2
        time: 0
        value: 1
        inSlope: 0
        outSlope: 0
        tangentMode: 69
      - serializedVersion: 2
        time: 6
        value: 1
        inSlope: -0
        outSlope: 0
        tangentMode: 69
      m_PreInfinity: 2
      m_PostInfinity: 2
      m_RotationOrder: 4
    attribute: material._MainTex_ST.x
    path: F_plan_A_01
    classID: 23
    script: {fileID: 0}
  - curve:
      serializedVersion: 2
      m_Curve:
      - serializedVersion: 2
        time: 0
        value: 1
        inSlope: 0
        outSlope: 0
        tangentMode: 69
      - serializedVersion: 2
        time: 6
        value: 1
        inSlope: -0
        outSlope: 0
        tangentMode: 69
      m_PreInfinity: 2
      m_PostInfinity: 2
      m_RotationOrder: 4
    attribute: material._MainTex_ST.y
    path: F_plan_A_01
    classID: 23
    script: {fileID: 0}
  - curve:
      serializedVersion: 2
      m_Curve:
      - serializedVersion: 2
        time: 0
        value: 0
        inSlope: 0
        outSlope: 0
        tangentMode: 69
      - serializedVersion: 2
        time: 6
        value: 0
        inSlope: -0
        outSlope: 0
        tangentMode: 69
      m_PreInfinity: 2
      m_PostInfinity: 2
      m_RotationOrder: 4
    attribute: material._MainTex_ST.z
    path: F_plan_A_01
    classID: 23
    script: {fileID: 0}
  - curve:
      serializedVersion: 2
      m_Curve:
      - serializedVersion: 2
        time: 0
        value: -8.39
        inSlope: 0
        outSlope: -1.2683333
        tangentMode: 69
      - serializedVersion: 2
        time: 6
        value: -16
        inSlope: -1.2683333
        outSlope: 0.91686743
        tangentMode: 69
      m_PreInfinity: 2
      m_PostInfinity: 2
      m_RotationOrder: 4
    attribute: material._MainTex_ST.w
    path: F_plan_A_01
    classID: 23
    script: {fileID: 0}
  - curve:
      serializedVersion: 2
      m_Curve:
      - serializedVersion: 2
        time: 0
        value: 1
        inSlope: 0
        outSlope: 0
        tangentMode: 69
      m_PreInfinity: 2
      m_PostInfinity: 2
      m_RotationOrder: 4
    attribute: tintColor.r
    path: M_plan_205_GU
    classID: 114
    script: {fileID: 11500000, guid: b21f803dea437d4428e4209098432094, type: 3}
  - curve:
      serializedVersion: 2
      m_Curve:
      - serializedVersion: 2
        time: 0
        value: 1
        inSlope: 0
        outSlope: 0
        tangentMode: 69
      m_PreInfinity: 2
      m_PostInfinity: 2
      m_RotationOrder: 4
    attribute: tintColor.g
    path: M_plan_205_GU
    classID: 114
    script: {fileID: 11500000, guid: b21f803dea437d4428e4209098432094, type: 3}
  - curve:
      serializedVersion: 2
      m_Curve:
      - serializedVersion: 2
        time: 0
        value: 1
        inSlope: 0
        outSlope: 0
        tangentMode: 69
      m_PreInfinity: 2
      m_PostInfinity: 2
      m_RotationOrder: 4
    attribute: tintColor.b
    path: M_plan_205_GU
    classID: 114
    script: {fileID: 11500000, guid: b21f803dea437d4428e4209098432094, type: 3}
  - curve:
      serializedVersion: 2
      m_Curve:
      - serializedVersion: 2
        time: 0
        value: 1
        inSlope: Infinity
        outSlope: 0
        tangentMode: 69
      - serializedVersion: 2
        time: 0.1
        value: 1
        inSlope: -0
        outSlope: Infinity
        tangentMode: 69
      m_PreInfinity: 2
      m_PostInfinity: 2
      m_RotationOrder: 4
    attribute: m_IsActive
    path: F_cone_02
    classID: 1
    script: {fileID: 0}
  m_EulerEditorCurves: []
  m_HasGenericRootTransform: 0
  m_HasMotionFloatCurves: 0
  m_GenerateMotionCurves: 0
  m_Events: []
