%YAML 1.1
%TAG !u! tag:unity3d.com,2011:
--- !u!114 &11400000
MonoBehaviour:
  m_ObjectHideFlags: 0
  m_CorrespondingSourceObject: {fileID: 0}
  m_PrefabInstance: {fileID: 0}
  m_PrefabAsset: {fileID: 0}
  m_GameObject: {fileID: 0}
  m_Enabled: 1
  m_EditorHideFlags: 0
  m_Script: {fileID: 11500000, guid: b89b59bfafba046fc9b9b70ee0831ad4, type: 3}
  m_Name: 2699b802eac7640648e19faa89f569d4_ContentUpdateGroupSchema
  m_EditorClassIdentifier: 
  m_Group: {fileID: 11400000, guid: ccdd8d2cb83e34af9ae099573f777c00, type: 2}
  m_StaticContent: 1
