%YAML 1.1
%TAG !u! tag:unity3d.com,2011:
--- !u!114 &11400000
MonoBehaviour:
  m_ObjectHideFlags: 0
  m_CorrespondingSourceObject: {fileID: 0}
  m_PrefabInstance: {fileID: 0}
  m_PrefabAsset: {fileID: 0}
  m_GameObject: {fileID: 0}
  m_Enabled: 1
  m_EditorHideFlags: 0
  m_Script: {fileID: 11500000, guid: 9a39779a70f6e45d98e3815d788dc454, type: 3}
  m_Name: AddressableAssetSettings
  m_EditorClassIdentifier: 
  m_DefaultGroup: 796b87e0f6798457295132bf191ed64e
  m_BuildRemoteCatalog: 1
  m_DisableCatalogUpdateOnStart: 0
  m_UniqueBundleIds: 0
  m_RemoteCatalogBuildPath:
    m_Id: 3ee21ad36fba64b7c81f285a9fa41d72
  m_RemoteCatalogLoadPath:
    m_Id: b5724c88e98904d359bc5d8d6f66aa81
  m_overridePlayerVersion: 
  m_GroupAssets:
  - {fileID: 11400000, guid: 8e0d984820696a145ae1bffb6c70a91b, type: 2}
  - {fileID: 11400000, guid: 84550a71c56c1fb4f85565c1b7434d46, type: 2}
  - {fileID: 11400000, guid: ccdd8d2cb83e34af9ae099573f777c00, type: 2}
  m_BuildSettings:
    m_CompileScriptsInVirtualMode: 0
    m_CleanupStreamingAssetsAfterBuilds: 1
    m_LogResourceManagerExceptions: 1
    m_BundleBuildPath: Temp/com.unity.addressables/AssetBundles
  m_ProfileSettings:
    m_Profiles:
    - m_InheritedParent: 
      m_Id: df75ac81528a84fb89b9ee5de7db2feb
      m_ProfileName: Default
      m_Values:
      - m_Id: 88e638aff7bae42809467b303ed595ae
        m_Value: '[UnityEditor.EditorUserBuildSettings.activeBuildTarget]'
      - m_Id: fbbd15cec802a4983ad5d53af950dd9a
        m_Value: '[UnityEngine.AddressableAssets.Addressables.BuildPath]/[BuildTarget]'
      - m_Id: 59113e34375ad428d80aa4b778204d9b
        m_Value: '{UnityEngine.AddressableAssets.Addressables.RuntimePath}/[BuildTarget]'
      - m_Id: 3ee21ad36fba64b7c81f285a9fa41d72
        m_Value: ServerData/[BuildTarget]
      - m_Id: b5724c88e98904d359bc5d8d6f66aa81
        m_Value: http://localhost/[BuildTarget]
    - m_InheritedParent: 
      m_Id: 2f9dbebf906cf416ea4e33518a5663e3
      m_ProfileName: Release
      m_Values:
      - m_Id: 88e638aff7bae42809467b303ed595ae
        m_Value: '[UnityEditor.EditorUserBuildSettings.activeBuildTarget]'
      - m_Id: fbbd15cec802a4983ad5d53af950dd9a
        m_Value: '[UnityEngine.AddressableAssets.Addressables.BuildPath]/[BuildTarget]'
      - m_Id: 59113e34375ad428d80aa4b778204d9b
        m_Value: '{UnityEngine.AddressableAssets.Addressables.RuntimePath}/[BuildTarget]'
      - m_Id: 3ee21ad36fba64b7c81f285a9fa41d72
        m_Value: Dist/ServerData/[BuildTarget]
      - m_Id: b5724c88e98904d359bc5d8d6f66aa81
        m_Value: http://118.190.206.94:8080/lensframework/versions/1_master/[BuildTarget]
    m_ProfileEntryNames:
    - m_Id: 88e638aff7bae42809467b303ed595ae
      m_Name: BuildTarget
      m_InlineUsage: 0
    - m_Id: fbbd15cec802a4983ad5d53af950dd9a
      m_Name: LocalBuildPath
      m_InlineUsage: 0
    - m_Id: 59113e34375ad428d80aa4b778204d9b
      m_Name: LocalLoadPath
      m_InlineUsage: 0
    - m_Id: 3ee21ad36fba64b7c81f285a9fa41d72
      m_Name: RemoteBuildPath
      m_InlineUsage: 0
    - m_Id: b5724c88e98904d359bc5d8d6f66aa81
      m_Name: RemoteLoadPath
      m_InlineUsage: 0
    m_ProfileVersion: 1
  m_LabelTable:
    m_LabelNames:
    - default
    - High
    - Middle
    - Low
    - Lua
  m_SchemaTemplates: []
  m_GroupTemplateObjects:
  - {fileID: 11400000, guid: a3e858004fa145e4294fe735ded882da, type: 2}
  m_InitializationObjects: []
  m_CertificateHandlerType:
    m_AssemblyName: 
    m_ClassName: 
  m_ActivePlayerDataBuilderIndex: 3
  m_DataBuilders:
  - {fileID: 11400000, guid: 1ca39b7add6f5fb4b819c5a31dcbe30d, type: 2}
  - {fileID: 11400000, guid: 3b76561ce4602884ba5c5452a09a9cfa, type: 2}
  - {fileID: 11400000, guid: 314643349f04d9244af2f97eb55ecde4, type: 2}
  - {fileID: 11400000, guid: 6b69fb4534a754dc389ce78262dfb638, type: 2}
  m_ActiveProfileId: 2f9dbebf906cf416ea4e33518a5663e3
  m_HostingServicesManager:
    m_HostingServiceInfos: []
    m_Settings: {fileID: 11400000}
    m_NextInstanceId: 0
    m_RegisteredServiceTypeRefs: []
